SSPS4102Data Analytics in the Social Sciences
…
.footnote[
[1] Look closely at questions and answers to understand the direction of your index. Here statements are negative ("PARTIES ARE ONLY INTERESTED IN PEOPLE'S VOTES...") and answers move from disagreement to agreement.
]

---

```r
itanes_2013 %>%
  dplyr::rowwise() %>%
  dplyr::mutate(index = mean(d38_1, d38_2, d38_3, d38_4))
```

```
## # A tibble: 1,508 × 7
## # Rowwise: 
##    sex        d38_1               d38_2            d38_3   d38_4   new_d…¹ index
##    <dbl+lbl>  <dbl+lbl>           <dbl+lbl>        <dbl+l> <dbl+l> <dbl+l> <dbl>
##  1 2 [Female] 1 [Not at all true] 4 [Completely t… 2 [Not… 2 [Not… 1 [Not…     1
##  2 2 [Female] 4 [Completely true] 4 [Completely t… 4 [Com… 4 [Com… 4 [Com…     4
##  3 1 [Male]   4 [Completely true] 5 [Don't know]   3 [Fai… 3 [Fai… 4 [Com…     4
##  4 1 [Male]   3 [Fairly true]     3 [Fairly true]  4 [Com… 4 [Com… 3 [Fai…     3
##  5 1 [Male]   3 [Fairly true]     2 [Not quite tr… 3 [Fai… 3 [Fai… 3 [Fai…     3
##  6 1 [Male]   4 [Completely true] 4 [Completely t… 4 [Com… 4 [Com… 4 [Com…     4
##  7 2 [Female] 4 [Completely true] 4 [Completely t… 4 [Com… 4 [Com… 4 [Com…     4
##  8 1 [Male]   4 [Completely true] 4 [Completely t… 4 [Com… 4 [Com… 4 [Com…     4
##  9 1 [Male]   2 [Not quite true]  2 [Not quite tr… 3 [Fai… 2 [Not… 2 [Not…     2
## 10 1 [Male]   4 [Completely true] 2 [Not quite tr… 4 [Com… 4 [Com… 4 [Com…     4
## # … with 1,498 more rows, and abbreviated variable name ¹​new_d38_1
```
